
			 <?php 
					 $league1  = "http://www.thecpl.cn/zt/en";
					 $league2  = "http://www.eswc.com/";
					 $league3  = "http://www.esl.eu/fr/";
					 $league4  = "";
					 $league5  = "";
					 $league6  = "";
					 $league7  = "";
					 $league8  = "";
					 $league9  = "";
					 $league10 = "";
					 
					 $league_i1 = "./images/league/cpl.jpg";
					 $league_i2 = "./images/league/eswc.jpg";
					 $league_i3 = "./images/league/eslmajor.jpg";
					 $league_i4 = "";
					 $league_i5 = "";
					 $league_i6 = "";
					 $league_i7 = "";
					 $league_i8 = "";
					 $league_i9 = "";
					 $league_i10 = "";
					 
					 $league_pic1 = "<a href='http://www.thecpl.cn/zt/en' title='league'><img src='./images/league/cpl.jpg' alt='league' /></a><br/>";
					 $league_pic2 = "<a href='http://www.eswc.com/' title='league'><img src='./images/league/eswc.jpg' alt='league' /></a><br/>";
					 $league_pic3 = "<a href='http://www.esl.eu/fr/' title='league'><img src='./images/league/eslmajor.jpg' alt='league' /></a><br/>";
				     $league_pic4 = "";
				     $league_pic5 = "";
					 $league_pic6 = "";
					 $league_pic7 = "";
					 $league_pic8 = "";
					 $league_pic9 = "";
					 $league_pic10 = "";
	 

			 ?>